module Go-JWT

go 1.20

require (
	github.com/golang-jwt/jwt/v5 v5.0.0-rc.1 // indirect
	github.com/gorilla/mux v1.8.0 // indirect
	github.com/jinzhu/inflection v1.0.0 // indirect
	github.com/jinzhu/now v1.1.5 // indirect
	gorm.io/gorm v1.24.6 // indirect
)
